{
  "project_info": {
    "project_number": "92249079676",
    "firebase_url": "https://c4-project.firebaseio.com",
    "project_id": "c4-project",
    "storage_bucket": "c4-project.appspot.com"
  },
  "client": [
    {
      "client_info": {
        "mobilesdk_app_id": "1:92249079676:android:e8ef02374a9749ec",
        "android_client_info": {
          "package_name": "com.project.cormac.runnerroots_c4project"
        }
      },
      "oauth_client": [
        {
          "client_id": "92249079676-t3fnf56t054uut0b6bci7hnhn3c0mp5t.apps.googleusercontent.com",
          "client_type": 1,
          "android_info": {
            "package_name": "com.project.cormac.runnerroots_c4project",
            "certificate_hash": "06e874610fa2067c3f098529a745b7e1d03bc469"
          }
        },
        {
          "client_id": "92249079676-echpv9v62d2hfqq472iqgn7kd12bscad.apps.googleusercontent.com",
          "client_type": 3
        }
      ],
      "api_key": [
        {
          "current_key": "AIzaSyA1qxgtrXPJrwK4AxsIn1cBgNA4ZciSUIU"
        }
      ],
      "services": {
        "analytics_service": {
          "status": 1
        },
        "appinvite_service": {
          "status": 2,
          "other_platform_oauth_client": [
            {
              "client_id": "92249079676-echpv9v62d2hfqq472iqgn7kd12bscad.apps.googleusercontent.com",
              "client_type": 3
            }
          ]
        },
        "ads_service": {
          "status": 2
        }
      }
    },
    {
      "client_info": {
        "mobilesdk_app_id": "1:92249079676:android:af1b0af71d474943",
        "android_client_info": {
          "package_name": "com.project.android"
        }
      },
      "oauth_client": [
        {
          "client_id": "92249079676-qn4ssvugc0a3vnbn7hauv8jn7psrrl94.apps.googleusercontent.com",
          "client_type": 1,
          "android_info": {
            "package_name": "com.project.android",
            "certificate_hash": "06e874610fa2067c3f098529a745b7e1d03bc469"
          }
        },
        {
          "client_id": "92249079676-echpv9v62d2hfqq472iqgn7kd12bscad.apps.googleusercontent.com",
          "client_type": 3
        }
      ],
      "api_key": [
        {
          "current_key": "AIzaSyA1qxgtrXPJrwK4AxsIn1cBgNA4ZciSUIU"
        }
      ],
      "services": {
        "analytics_service": {
          "status": 1
        },
        "appinvite_service": {
          "status": 2,
          "other_platform_oauth_client": [
            {
              "client_id": "92249079676-echpv9v62d2hfqq472iqgn7kd12bscad.apps.googleusercontent.com",
              "client_type": 3
            }
          ]
        },
        "ads_service": {
          "status": 2
        }
      }
    }
  ],
  "configuration_version": "1"
}